^C:\USERS\VADIM2\DOCUMENTS\SUMMER SCHOOL\W2D1 TYPECONV\TYPECONV\TYPECONV\SOURCE.CPP
C:\USERS\VADIM2\DOCUMENTS\SUMMER SCHOOL\W2D1 TYPECONV\TYPECONV\TYPECONV\DEBUG\VC140.PDB
C:\USERS\VADIM2\DOCUMENTS\SUMMER SCHOOL\W2D1 TYPECONV\TYPECONV\TYPECONV\DEBUG\VC140.IDB
C:\USERS\VADIM2\DOCUMENTS\SUMMER SCHOOL\W2D1 TYPECONV\TYPECONV\TYPECONV\DEBUG\SOURCE.OBJ
^C:\USERS\VADIM2\DOCUMENTS\SIEMENS\W2D1 - TYPE CONVERSION\STATIC_CAST.CPP
C:\USERS\VADIM2\DOCUMENTS\SUMMER SCHOOL\W2D1 TYPECONV\TYPECONV\TYPECONV\DEBUG\VC140.PDB
C:\USERS\VADIM2\DOCUMENTS\SUMMER SCHOOL\W2D1 TYPECONV\TYPECONV\TYPECONV\DEBUG\VC140.IDB
C:\USERS\VADIM2\DOCUMENTS\SUMMER SCHOOL\W2D1 TYPECONV\TYPECONV\TYPECONV\DEBUG\STATIC_CAST.OBJ
^C:\USERS\VADIM2\DOCUMENTS\SIEMENS\W2D1 - TYPE CONVERSION\DYNAMIC_CAST.CPP
C:\USERS\VADIM2\DOCUMENTS\SUMMER SCHOOL\W2D1 TYPECONV\TYPECONV\TYPECONV\DEBUG\VC140.PDB
C:\USERS\VADIM2\DOCUMENTS\SUMMER SCHOOL\W2D1 TYPECONV\TYPECONV\TYPECONV\DEBUG\VC140.IDB
^C:\USERS\VADIM2\DOCUMENTS\SIEMENS\W2D1 - TYPE CONVERSION\CONST_CAST.CPP
C:\USERS\VADIM2\DOCUMENTS\SUMMER SCHOOL\W2D1 TYPECONV\TYPECONV\TYPECONV\DEBUG\VC140.PDB
C:\USERS\VADIM2\DOCUMENTS\SUMMER SCHOOL\W2D1 TYPECONV\TYPECONV\TYPECONV\DEBUG\VC140.IDB
C:\USERS\VADIM2\DOCUMENTS\SUMMER SCHOOL\W2D1 TYPECONV\TYPECONV\TYPECONV\DEBUG\CONST_CAST.OBJ
^C:\USERS\VADIM2\DOCUMENTS\SUMMER SCHOOL\SIEMENS\W2D1 - TYPE CONVERSION\CONST_CAST.CPP
C:\USERS\VADIM2\DOCUMENTS\SUMMER SCHOOL\W2D1 TYPECONV\TYPECONV\TYPECONV\DEBUG\VC140.PDB
C:\USERS\VADIM2\DOCUMENTS\SUMMER SCHOOL\W2D1 TYPECONV\TYPECONV\TYPECONV\DEBUG\VC140.IDB
C:\USERS\VADIM2\DOCUMENTS\SUMMER SCHOOL\W2D1 TYPECONV\TYPECONV\TYPECONV\DEBUG\CONST_CAST.OBJ
^C:\USERS\VADIM2\DOCUMENTS\SUMMER SCHOOL\SIEMENS\W2D1 - TYPE CONVERSION\REINTERPRET_CAST.CPP
C:\USERS\VADIM2\DOCUMENTS\SUMMER SCHOOL\W2D1 TYPECONV\TYPECONV\TYPECONV\DEBUG\VC140.PDB
C:\USERS\VADIM2\DOCUMENTS\SUMMER SCHOOL\W2D1 TYPECONV\TYPECONV\TYPECONV\DEBUG\VC140.IDB
C:\USERS\VADIM2\DOCUMENTS\SUMMER SCHOOL\W2D1 TYPECONV\TYPECONV\TYPECONV\DEBUG\REINTERPRET_CAST.OBJ
^C:\USERS\VADIM2\DOCUMENTS\SUMMER SCHOOL\W2D1 TYPECONV\TYPECONV\TYPECONV\EX2.CPP
C:\USERS\VADIM2\DOCUMENTS\SUMMER SCHOOL\W2D1 TYPECONV\TYPECONV\TYPECONV\DEBUG\VC140.PDB
C:\USERS\VADIM2\DOCUMENTS\SUMMER SCHOOL\W2D1 TYPECONV\TYPECONV\TYPECONV\DEBUG\VC140.IDB
C:\USERS\VADIM2\DOCUMENTS\SUMMER SCHOOL\W2D1 TYPECONV\TYPECONV\TYPECONV\DEBUG\EX2.OBJ
^C:\USERS\VADIM2\DOCUMENTS\SUMMER SCHOOL\W2D1 TYPECONV\TYPECONV\TYPECONV\EX4.CPP
C:\USERS\VADIM2\DOCUMENTS\SUMMER SCHOOL\W2D1 TYPECONV\TYPECONV\TYPECONV\DEBUG\VC140.PDB
C:\USERS\VADIM2\DOCUMENTS\SUMMER SCHOOL\W2D1 TYPECONV\TYPECONV\TYPECONV\DEBUG\VC140.IDB
C:\USERS\VADIM2\DOCUMENTS\SUMMER SCHOOL\W2D1 TYPECONV\TYPECONV\TYPECONV\DEBUG\EX4.OBJ
^C:\USERS\VADIM2\DOCUMENTS\SUMMER SCHOOL\W2D1 TYPECONV\TYPECONV\TYPECONV\EX5.CPP
C:\USERS\VADIM2\DOCUMENTS\SUMMER SCHOOL\W2D1 TYPECONV\TYPECONV\TYPECONV\DEBUG\VC140.PDB
C:\USERS\VADIM2\DOCUMENTS\SUMMER SCHOOL\W2D1 TYPECONV\TYPECONV\TYPECONV\DEBUG\VC140.IDB
C:\USERS\VADIM2\DOCUMENTS\SUMMER SCHOOL\W2D1 TYPECONV\TYPECONV\TYPECONV\DEBUG\EX5.OBJ
^C:\USERS\VADIM2\DOCUMENTS\SUMMER SCHOOL\W2D1 TYPECONV\TYPECONV\TYPECONV\EX6.CPP
C:\USERS\VADIM2\DOCUMENTS\SUMMER SCHOOL\W2D1 TYPECONV\TYPECONV\TYPECONV\DEBUG\VC140.PDB
C:\USERS\VADIM2\DOCUMENTS\SUMMER SCHOOL\W2D1 TYPECONV\TYPECONV\TYPECONV\DEBUG\VC140.IDB
^C:\USERS\VADIM2\DOCUMENTS\SUMMER SCHOOL\SIEMENS\W2D1 - TYPE CONVERSION\EXCEPTIONS2.CPP
C:\USERS\VADIM2\DOCUMENTS\SUMMER SCHOOL\W2D1 TYPECONV\TYPECONV\TYPECONV\DEBUG\VC140.PDB
C:\USERS\VADIM2\DOCUMENTS\SUMMER SCHOOL\W2D1 TYPECONV\TYPECONV\TYPECONV\DEBUG\VC140.IDB
C:\USERS\VADIM2\DOCUMENTS\SUMMER SCHOOL\W2D1 TYPECONV\TYPECONV\TYPECONV\DEBUG\EXCEPTIONS2.OBJ
^C:\USERS\VADIM2\DOCUMENTS\SUMMER SCHOOL\SIEMENS\W2D1 - TYPE CONVERSION\EXCEPTIONS1.CPP
C:\USERS\VADIM2\DOCUMENTS\SUMMER SCHOOL\W2D1 TYPECONV\TYPECONV\TYPECONV\DEBUG\VC140.PDB
C:\USERS\VADIM2\DOCUMENTS\SUMMER SCHOOL\W2D1 TYPECONV\TYPECONV\TYPECONV\DEBUG\VC140.IDB
C:\USERS\VADIM2\DOCUMENTS\SUMMER SCHOOL\W2D1 TYPECONV\TYPECONV\TYPECONV\DEBUG\EXCEPTIONS1.OBJ
