^C:\USERS\VADIM2\DOCUMENTS\SUMMER SCHOOL\IOSTREAMS (W1D4)\IOSTREAMS (W1D4)\IOSTREAMS.CPP
/c /ZI /nologo /W3 /WX- /sdl /Od /Oy- /D _MBCS /Gm /EHsc /RTC1 /MDd /GS /fp:precise /Zc:wchar_t /Zc:forScope /Zc:inline /Fo"DEBUG\\" /Fd"DEBUG\VC140.PDB" /Gd /TP /analyze- C:\USERS\VADIM2\DOCUMENTS\SUMMER SCHOOL\IOSTREAMS (W1D4)\IOSTREAMS (W1D4)\IOSTREAMS.CPP
^C:\USERS\VADIM2\DOCUMENTS\SUMMER SCHOOL\IOSTREAMS (W1D4)\IOSTREAMS (W1D4)\EXEMPLU1.CPP
/c /ZI /nologo /W3 /WX- /sdl /Od /Oy- /D _MBCS /Gm /EHsc /RTC1 /MDd /GS /fp:precise /Zc:wchar_t /Zc:forScope /Zc:inline /Fo"DEBUG\\" /Fd"DEBUG\VC140.PDB" /Gd /TP /analyze- C:\USERS\VADIM2\DOCUMENTS\SUMMER SCHOOL\IOSTREAMS (W1D4)\IOSTREAMS (W1D4)\EXEMPLU1.CPP
^C:\USERS\VADIM2\DOCUMENTS\SUMMER SCHOOL\IOSTREAMS (W1D4)\IOSTREAMS (W1D4)\PROB2.CPP
/c /ZI /nologo /W3 /WX- /sdl /Od /Oy- /D _MBCS /Gm /EHsc /RTC1 /MDd /GS /fp:precise /Zc:wchar_t /Zc:forScope /Zc:inline /Fo"DEBUG\\" /Fd"DEBUG\VC140.PDB" /Gd /TP /analyze- C:\USERS\VADIM2\DOCUMENTS\SUMMER SCHOOL\IOSTREAMS (W1D4)\IOSTREAMS (W1D4)\PROB2.CPP
^C:\USERS\VADIM2\DOCUMENTS\SUMMER SCHOOL\IOSTREAMS (W1D4)\IOSTREAMS (W1D4)\FSTREAMS.CPP
/c /ZI /nologo /W3 /WX- /sdl /Od /Oy- /D _MBCS /Gm /EHsc /RTC1 /MDd /GS /fp:precise /Zc:wchar_t /Zc:forScope /Zc:inline /Fo"DEBUG\\" /Fd"DEBUG\VC140.PDB" /Gd /TP /analyze- C:\USERS\VADIM2\DOCUMENTS\SUMMER SCHOOL\IOSTREAMS (W1D4)\IOSTREAMS (W1D4)\FSTREAMS.CPP
^C:\USERS\VADIM2\DOCUMENTS\SUMMER SCHOOL\IOSTREAMS (W1D4)\IOSTREAMS (W1D4)\EXERCITII_EXPLICATIIOUTPUT.CPP
/c /ZI /nologo /W3 /WX- /sdl /Od /Oy- /D _MBCS /Gm /EHsc /RTC1 /MDd /GS /fp:precise /Zc:wchar_t /Zc:forScope /Zc:inline /Fo"DEBUG\\" /Fd"DEBUG\VC140.PDB" /Gd /TP /analyze- C:\USERS\VADIM2\DOCUMENTS\SUMMER SCHOOL\IOSTREAMS (W1D4)\IOSTREAMS (W1D4)\EXERCITII_EXPLICATIIOUTPUT.CPP
^C:\USERS\VADIM2\DOCUMENTS\SUMMER SCHOOL\IOSTREAMS (W1D4)\IOSTREAMS (W1D4)\EXERCITII5.CPP
/c /ZI /nologo /W3 /WX- /sdl /Od /Oy- /D _MBCS /Gm /EHsc /RTC1 /MDd /GS /fp:precise /Zc:wchar_t /Zc:forScope /Zc:inline /Fo"DEBUG\\" /Fd"DEBUG\VC140.PDB" /Gd /TP /analyze- C:\USERS\VADIM2\DOCUMENTS\SUMMER SCHOOL\IOSTREAMS (W1D4)\IOSTREAMS (W1D4)\EXERCITII5.CPP
^C:\USERS\VADIM2\DOCUMENTS\SUMMER SCHOOL\IOSTREAMS (W1D4)\IOSTREAMS (W1D4)\EXERCITII6.CPP
/c /ZI /nologo /W3 /WX- /sdl /Od /Oy- /D _MBCS /Gm /EHsc /RTC1 /MDd /GS /fp:precise /Zc:wchar_t /Zc:forScope /Zc:inline /Fo"DEBUG\\" /Fd"DEBUG\VC140.PDB" /Gd /TP /analyze- C:\USERS\VADIM2\DOCUMENTS\SUMMER SCHOOL\IOSTREAMS (W1D4)\IOSTREAMS (W1D4)\EXERCITII6.CPP
