^C:\USERS\VADIM2\DOCUMENTS\SUMMER SCHOOL\IOSTREAMS (W1D4)\IOSTREAMS (W1D4)\IOSTREAMS.CPP
C:\USERS\VADIM2\DOCUMENTS\SUMMER SCHOOL\IOSTREAMS (W1D4)\IOSTREAMS (W1D4)\DEBUG\VC140.PDB
C:\USERS\VADIM2\DOCUMENTS\SUMMER SCHOOL\IOSTREAMS (W1D4)\IOSTREAMS (W1D4)\DEBUG\VC140.IDB
C:\USERS\VADIM2\DOCUMENTS\SUMMER SCHOOL\IOSTREAMS (W1D4)\IOSTREAMS (W1D4)\DEBUG\IOSTREAMS.OBJ
^C:\USERS\VADIM2\DOCUMENTS\SUMMER SCHOOL\IOSTREAMS (W1D4)\IOSTREAMS (W1D4)\EXEMPLU1.CPP
C:\USERS\VADIM2\DOCUMENTS\SUMMER SCHOOL\IOSTREAMS (W1D4)\IOSTREAMS (W1D4)\DEBUG\VC140.PDB
C:\USERS\VADIM2\DOCUMENTS\SUMMER SCHOOL\IOSTREAMS (W1D4)\IOSTREAMS (W1D4)\DEBUG\VC140.IDB
C:\USERS\VADIM2\DOCUMENTS\SUMMER SCHOOL\IOSTREAMS (W1D4)\IOSTREAMS (W1D4)\DEBUG\EXEMPLU1.OBJ
^C:\USERS\VADIM2\DOCUMENTS\SUMMER SCHOOL\IOSTREAMS (W1D4)\IOSTREAMS (W1D4)\PROB2.CPP
C:\USERS\VADIM2\DOCUMENTS\SUMMER SCHOOL\IOSTREAMS (W1D4)\IOSTREAMS (W1D4)\DEBUG\VC140.PDB
C:\USERS\VADIM2\DOCUMENTS\SUMMER SCHOOL\IOSTREAMS (W1D4)\IOSTREAMS (W1D4)\DEBUG\VC140.IDB
C:\USERS\VADIM2\DOCUMENTS\SUMMER SCHOOL\IOSTREAMS (W1D4)\IOSTREAMS (W1D4)\DEBUG\PROB2.OBJ
^C:\USERS\VADIM2\DOCUMENTS\SUMMER SCHOOL\IOSTREAMS (W1D4)\IOSTREAMS (W1D4)\FSTREAMS.CPP
C:\USERS\VADIM2\DOCUMENTS\SUMMER SCHOOL\IOSTREAMS (W1D4)\IOSTREAMS (W1D4)\DEBUG\VC140.PDB
C:\USERS\VADIM2\DOCUMENTS\SUMMER SCHOOL\IOSTREAMS (W1D4)\IOSTREAMS (W1D4)\DEBUG\VC140.IDB
C:\USERS\VADIM2\DOCUMENTS\SUMMER SCHOOL\IOSTREAMS (W1D4)\IOSTREAMS (W1D4)\DEBUG\FSTREAMS.OBJ
^C:\USERS\VADIM2\DOCUMENTS\SUMMER SCHOOL\IOSTREAMS (W1D4)\IOSTREAMS (W1D4)\EXERCITII_EXPLICATIIOUTPUT.CPP
C:\USERS\VADIM2\DOCUMENTS\SUMMER SCHOOL\IOSTREAMS (W1D4)\IOSTREAMS (W1D4)\DEBUG\VC140.PDB
C:\USERS\VADIM2\DOCUMENTS\SUMMER SCHOOL\IOSTREAMS (W1D4)\IOSTREAMS (W1D4)\DEBUG\VC140.IDB
C:\USERS\VADIM2\DOCUMENTS\SUMMER SCHOOL\IOSTREAMS (W1D4)\IOSTREAMS (W1D4)\DEBUG\EXERCITII_EXPLICATIIOUTPUT.OBJ
^C:\USERS\VADIM2\DOCUMENTS\SUMMER SCHOOL\IOSTREAMS (W1D4)\IOSTREAMS (W1D4)\EXERCITII5.CPP
C:\USERS\VADIM2\DOCUMENTS\SUMMER SCHOOL\IOSTREAMS (W1D4)\IOSTREAMS (W1D4)\DEBUG\VC140.PDB
C:\USERS\VADIM2\DOCUMENTS\SUMMER SCHOOL\IOSTREAMS (W1D4)\IOSTREAMS (W1D4)\DEBUG\VC140.IDB
C:\USERS\VADIM2\DOCUMENTS\SUMMER SCHOOL\IOSTREAMS (W1D4)\IOSTREAMS (W1D4)\DEBUG\EXERCITII5.OBJ
^C:\USERS\VADIM2\DOCUMENTS\SUMMER SCHOOL\IOSTREAMS (W1D4)\IOSTREAMS (W1D4)\EXERCITII6.CPP
C:\USERS\VADIM2\DOCUMENTS\SUMMER SCHOOL\IOSTREAMS (W1D4)\IOSTREAMS (W1D4)\DEBUG\VC140.PDB
C:\USERS\VADIM2\DOCUMENTS\SUMMER SCHOOL\IOSTREAMS (W1D4)\IOSTREAMS (W1D4)\DEBUG\VC140.IDB
C:\USERS\VADIM2\DOCUMENTS\SUMMER SCHOOL\IOSTREAMS (W1D4)\IOSTREAMS (W1D4)\DEBUG\EXERCITII6.OBJ
