^C:\USERS\VADIM2\DOCUMENTS\SUMMER SCHOOL\W2D4 - MOREONCLASSES\MOREONCLASSES\MOREONCLASSES\PUNCT2D.CPP|C:\USERS\VADIM2\DOCUMENTS\SUMMER SCHOOL\W2D4 - MOREONCLASSES\MOREONCLASSES\MOREONCLASSES\SOURCEPOINT2D.CPP
C:\USERS\VADIM2\DOCUMENTS\SUMMER SCHOOL\W2D4 - MOREONCLASSES\MOREONCLASSES\MOREONCLASSES\DEBUG\VC140.PDB
C:\USERS\VADIM2\DOCUMENTS\SUMMER SCHOOL\W2D4 - MOREONCLASSES\MOREONCLASSES\MOREONCLASSES\DEBUG\VC140.IDB
C:\USERS\VADIM2\DOCUMENTS\SUMMER SCHOOL\W2D4 - MOREONCLASSES\MOREONCLASSES\MOREONCLASSES\DEBUG\SOURCEPOINT2D.OBJ
^C:\USERS\VADIM2\DOCUMENTS\SUMMER SCHOOL\W2D4 - MOREONCLASSES\MOREONCLASSES\MOREONCLASSES\PUNCT2D.CPP
C:\USERS\VADIM2\DOCUMENTS\SUMMER SCHOOL\W2D4 - MOREONCLASSES\MOREONCLASSES\MOREONCLASSES\DEBUG\VC140.PDB
C:\USERS\VADIM2\DOCUMENTS\SUMMER SCHOOL\W2D4 - MOREONCLASSES\MOREONCLASSES\MOREONCLASSES\DEBUG\VC140.IDB
C:\USERS\VADIM2\DOCUMENTS\SUMMER SCHOOL\W2D4 - MOREONCLASSES\MOREONCLASSES\MOREONCLASSES\DEBUG\PUNCT2D.OBJ
^C:\USERS\VADIM2\DOCUMENTS\SUMMER SCHOOL\W2D4 - MOREONCLASSES\MOREONCLASSES\MOREONCLASSES\SOURCEPOINT2D.CPP
C:\USERS\VADIM2\DOCUMENTS\SUMMER SCHOOL\W2D4 - MOREONCLASSES\MOREONCLASSES\MOREONCLASSES\DEBUG\VC140.PDB
C:\USERS\VADIM2\DOCUMENTS\SUMMER SCHOOL\W2D4 - MOREONCLASSES\MOREONCLASSES\MOREONCLASSES\DEBUG\VC140.IDB
C:\USERS\VADIM2\DOCUMENTS\SUMMER SCHOOL\W2D4 - MOREONCLASSES\MOREONCLASSES\MOREONCLASSES\DEBUG\SOURCEPOINT2D.OBJ
