^C:\USERS\VADIM2\DOCUMENTS\SUMMER SCHOOL\SIEMENS\W3D1 - FUNCOVERLOADING\FUNCTION_OVERLOADING\MAIN.CPP
/c /ZI /nologo /W3 /WX- /sdl /Od /Oy- /D _MBCS /Gm /EHsc /RTC1 /MDd /GS /fp:precise /Zc:wchar_t /Zc:forScope /Zc:inline /Fo"DEBUG\\" /Fd"DEBUG\VC140.PDB" /Gd /TP /analyze- C:\USERS\VADIM2\DOCUMENTS\SUMMER SCHOOL\SIEMENS\W3D1 - FUNCOVERLOADING\FUNCTION_OVERLOADING\MAIN.CPP
^C:\USERS\VADIM2\DOCUMENTS\SUMMER SCHOOL\SIEMENS\W3D1 - FUNCOVERLOADING\CONSTRUCTOR_OVERLOADING\COMPLEX.CPP
/c /ZI /nologo /W3 /WX- /sdl /Od /Oy- /D _MBCS /Gm /EHsc /RTC1 /MDd /GS /fp:precise /Zc:wchar_t /Zc:forScope /Zc:inline /Fo"DEBUG\\" /Fd"DEBUG\VC140.PDB" /Gd /TP /analyze- C:\USERS\VADIM2\DOCUMENTS\SUMMER SCHOOL\SIEMENS\W3D1 - FUNCOVERLOADING\CONSTRUCTOR_OVERLOADING\COMPLEX.CPP
^C:\USERS\VADIM2\DOCUMENTS\SUMMER SCHOOL\SIEMENS\W3D1 - FUNCOVERLOADING\CONSTRUCTOR_OVERLOADING\MAIN.CPP
/c /ZI /nologo /W3 /WX- /sdl /Od /Oy- /D _MBCS /Gm /EHsc /RTC1 /MDd /GS /fp:precise /Zc:wchar_t /Zc:forScope /Zc:inline /Fo"DEBUG\\" /Fd"DEBUG\VC140.PDB" /Gd /TP /analyze- C:\USERS\VADIM2\DOCUMENTS\SUMMER SCHOOL\SIEMENS\W3D1 - FUNCOVERLOADING\CONSTRUCTOR_OVERLOADING\MAIN.CPP
^C:\USERS\VADIM2\DOCUMENTS\SUMMER SCHOOL\SIEMENS\W3D1 - FUNCOVERLOADING\METHODS_OVERLOADING\MAIN.CPP
/c /ZI /nologo /W3 /WX- /sdl /Od /Oy- /D _MBCS /Gm /EHsc /RTC1 /MDd /GS /fp:precise /Zc:wchar_t /Zc:forScope /Zc:inline /Fo"DEBUG\\" /Fd"DEBUG\VC140.PDB" /Gd /TP /analyze- C:\USERS\VADIM2\DOCUMENTS\SUMMER SCHOOL\SIEMENS\W3D1 - FUNCOVERLOADING\METHODS_OVERLOADING\MAIN.CPP
^C:\USERS\VADIM2\DOCUMENTS\SUMMER SCHOOL\SIEMENS\W3D1 - FUNCOVERLOADING\METHODS_OVERLOADING\COMPLEX.CPP
/c /ZI /nologo /W3 /WX- /sdl /Od /Oy- /D _MBCS /Gm /EHsc /RTC1 /MDd /GS /fp:precise /Zc:wchar_t /Zc:forScope /Zc:inline /Fo"DEBUG\\" /Fd"DEBUG\VC140.PDB" /Gd /TP /analyze- C:\USERS\VADIM2\DOCUMENTS\SUMMER SCHOOL\SIEMENS\W3D1 - FUNCOVERLOADING\METHODS_OVERLOADING\COMPLEX.CPP
^C:\USERS\VADIM2\DOCUMENTS\SUMMER SCHOOL\SIEMENS\W3D1 - FUNCOVERLOADING\METHODS_OVERLOADING_CONST\MAIN.CPP
/c /ZI /nologo /W3 /WX- /sdl /Od /Oy- /D _MBCS /Gm /EHsc /RTC1 /MDd /GS /fp:precise /Zc:wchar_t /Zc:forScope /Zc:inline /Fo"DEBUG\\" /Fd"DEBUG\VC140.PDB" /Gd /TP /analyze- C:\USERS\VADIM2\DOCUMENTS\SUMMER SCHOOL\SIEMENS\W3D1 - FUNCOVERLOADING\METHODS_OVERLOADING_CONST\MAIN.CPP
^C:\USERS\VADIM2\DOCUMENTS\SUMMER SCHOOL\SIEMENS\W3D1 - FUNCOVERLOADING\METHODS_OVERLOADING_CONST\COMPLEX.CPP
/c /ZI /nologo /W3 /WX- /sdl /Od /Oy- /D _MBCS /Gm /EHsc /RTC1 /MDd /GS /fp:precise /Zc:wchar_t /Zc:forScope /Zc:inline /Fo"DEBUG\\" /Fd"DEBUG\VC140.PDB" /Gd /TP /analyze- C:\USERS\VADIM2\DOCUMENTS\SUMMER SCHOOL\SIEMENS\W3D1 - FUNCOVERLOADING\METHODS_OVERLOADING_CONST\COMPLEX.CPP
^C:\USERS\VADIM2\DOCUMENTS\SUMMER SCHOOL\SIEMENS\W3D1 - FUNCOVERLOADING\COMPLEX_NUMBERS_FULL_MATH\COMPLEX.CPP
/c /ZI /nologo /W3 /WX- /sdl /Od /Oy- /D _MBCS /Gm /EHsc /RTC1 /MDd /GS /fp:precise /Zc:wchar_t /Zc:forScope /Zc:inline /Fo"DEBUG\\" /Fd"DEBUG\VC140.PDB" /Gd /TP /analyze- C:\USERS\VADIM2\DOCUMENTS\SUMMER SCHOOL\SIEMENS\W3D1 - FUNCOVERLOADING\COMPLEX_NUMBERS_FULL_MATH\COMPLEX.CPP
^C:\USERS\VADIM2\DOCUMENTS\SUMMER SCHOOL\SIEMENS\W3D1 - FUNCOVERLOADING\COMPLEX_NUMBERS_FULL_MATH\MAIN.CPP
/c /ZI /nologo /W3 /WX- /sdl /Od /Oy- /D _MBCS /Gm /EHsc /RTC1 /MDd /GS /fp:precise /Zc:wchar_t /Zc:forScope /Zc:inline /Fo"DEBUG\\" /Fd"DEBUG\VC140.PDB" /Gd /TP /analyze- C:\USERS\VADIM2\DOCUMENTS\SUMMER SCHOOL\SIEMENS\W3D1 - FUNCOVERLOADING\COMPLEX_NUMBERS_FULL_MATH\MAIN.CPP
^C:\USERS\VADIM2\DOCUMENTS\SUMMER SCHOOL\SIEMENS\W3D1 - FUNCOVERLOADING\FUNCTION_OVERLOADING\COMPLEX.CPP
/c /ZI /nologo /W3 /WX- /sdl /Od /Oy- /D _MBCS /Gm /EHsc /RTC1 /MDd /GS /fp:precise /Zc:wchar_t /Zc:forScope /Zc:inline /Fo"DEBUG\\" /Fd"DEBUG\VC140.PDB" /Gd /TP /analyze- C:\USERS\VADIM2\DOCUMENTS\SUMMER SCHOOL\SIEMENS\W3D1 - FUNCOVERLOADING\FUNCTION_OVERLOADING\COMPLEX.CPP
^C:\USERS\VADIM2\DOCUMENTS\SUMMER SCHOOL\W3D1 - FUNCOVERLOADING\FUNCOVERLOADING\FUNCOVERLOADING\SOURCE.CPP
/c /ZI /nologo /W3 /WX- /sdl /Od /Oy- /D _MBCS /Gm /EHsc /RTC1 /MDd /GS /fp:precise /Zc:wchar_t /Zc:forScope /Zc:inline /Fo"DEBUG\\" /Fd"DEBUG\VC140.PDB" /Gd /TP /analyze- C:\USERS\VADIM2\DOCUMENTS\SUMMER SCHOOL\W3D1 - FUNCOVERLOADING\FUNCOVERLOADING\FUNCOVERLOADING\SOURCE.CPP
^C:\USERS\VADIM2\DOCUMENTS\SUMMER SCHOOL\W3D1 - FUNCOVERLOADING\FUNCOVERLOADING\FUNCOVERLOADING\VECTOR3D.CPP
/c /ZI /nologo /W3 /WX- /sdl /Od /Oy- /D _MBCS /Gm /EHsc /RTC1 /MDd /GS /fp:precise /Zc:wchar_t /Zc:forScope /Zc:inline /Fo"DEBUG\\" /Fd"DEBUG\VC140.PDB" /Gd /TP /analyze- C:\USERS\VADIM2\DOCUMENTS\SUMMER SCHOOL\W3D1 - FUNCOVERLOADING\FUNCOVERLOADING\FUNCOVERLOADING\VECTOR3D.CPP
