^C:\USERS\VADIM2\DOCUMENTS\SUMMER SCHOOL\W3D1 - FUNCOVERLOADING\FUNCOVERLOADING\FUNCOVERLOADING\DEBUG\MAIN.OBJ
/OUT:"C:\USERS\VADIM2\DOCUMENTS\SUMMER SCHOOL\W3D1 - FUNCOVERLOADING\FUNCOVERLOADING\DEBUG\FUNCOVERLOADING.EXE" /INCREMENTAL /NOLOGO KERNEL32.LIB USER32.LIB GDI32.LIB WINSPOOL.LIB COMDLG32.LIB ADVAPI32.LIB SHELL32.LIB OLE32.LIB OLEAUT32.LIB UUID.LIB ODBC32.LIB ODBCCP32.LIB /MANIFEST /MANIFESTUAC:"level='asInvoker' uiAccess='false'" /manifest:embed /DEBUG:FASTLINK /PDB:"C:\USERS\VADIM2\DOCUMENTS\SUMMER SCHOOL\W3D1 - FUNCOVERLOADING\FUNCOVERLOADING\DEBUG\FUNCOVERLOADING.PDB" /SUBSYSTEM:CONSOLE /TLBID:1 /DYNAMICBASE /NXCOMPAT /IMPLIB:"C:\USERS\VADIM2\DOCUMENTS\SUMMER SCHOOL\W3D1 - FUNCOVERLOADING\FUNCOVERLOADING\DEBUG\FUNCOVERLOADING.LIB" /MACHINE:X86 DEBUG\MAIN.OBJ
^C:\USERS\VADIM2\DOCUMENTS\SUMMER SCHOOL\W3D1 - FUNCOVERLOADING\FUNCOVERLOADING\FUNCOVERLOADING\DEBUG\SOURCE.OBJ|C:\USERS\VADIM2\DOCUMENTS\SUMMER SCHOOL\W3D1 - FUNCOVERLOADING\FUNCOVERLOADING\FUNCOVERLOADING\DEBUG\VECTOR3D.OBJ
/OUT:"C:\USERS\VADIM2\DOCUMENTS\SUMMER SCHOOL\W3D1 - FUNCOVERLOADING\FUNCOVERLOADING\DEBUG\FUNCOVERLOADING.EXE" /INCREMENTAL /NOLOGO KERNEL32.LIB USER32.LIB GDI32.LIB WINSPOOL.LIB COMDLG32.LIB ADVAPI32.LIB SHELL32.LIB OLE32.LIB OLEAUT32.LIB UUID.LIB ODBC32.LIB ODBCCP32.LIB /MANIFEST /MANIFESTUAC:"level='asInvoker' uiAccess='false'" /manifest:embed /DEBUG:FASTLINK /PDB:"C:\USERS\VADIM2\DOCUMENTS\SUMMER SCHOOL\W3D1 - FUNCOVERLOADING\FUNCOVERLOADING\DEBUG\FUNCOVERLOADING.PDB" /SUBSYSTEM:CONSOLE /TLBID:1 /DYNAMICBASE /NXCOMPAT /IMPLIB:"C:\USERS\VADIM2\DOCUMENTS\SUMMER SCHOOL\W3D1 - FUNCOVERLOADING\FUNCOVERLOADING\DEBUG\FUNCOVERLOADING.LIB" /MACHINE:X86 DEBUG\SOURCE.OBJDEBUG\VECTOR3D.OBJ
