^C:\USERS\VADIM2\DOCUMENTS\SUMMER SCHOOL\W3D1 - FUNCOVERLOADING\FUNCOVERLOADING\FUNCOVERLOADING\DEBUG\SOURCE.OBJ|C:\USERS\VADIM2\DOCUMENTS\SUMMER SCHOOL\W3D1 - FUNCOVERLOADING\FUNCOVERLOADING\FUNCOVERLOADING\DEBUG\VECTOR3D.OBJ
C:\USERS\VADIM2\DOCUMENTS\SUMMER SCHOOL\W3D1 - FUNCOVERLOADING\FUNCOVERLOADING\DEBUG\FUNCOVERLOADING.ILK
C:\USERS\VADIM2\DOCUMENTS\SUMMER SCHOOL\W3D1 - FUNCOVERLOADING\FUNCOVERLOADING\DEBUG\FUNCOVERLOADING.EXE
C:\USERS\VADIM2\DOCUMENTS\SUMMER SCHOOL\W3D1 - FUNCOVERLOADING\FUNCOVERLOADING\DEBUG\FUNCOVERLOADING.PDB
