^C:\USERS\VADIM2\DOCUMENTS\W1D3SILVIU\EX_ADDRESSES.CPP
/c /ZI /nologo /W3 /WX- /sdl /Od /D _MBCS /Gm /EHsc /RTC1 /MDd /GS /fp:precise /Zc:wchar_t /Zc:forScope /Zc:inline /Fo"X64\DEBUG\\" /Fd"X64\DEBUG\VC140.PDB" /Gd /TP C:\USERS\VADIM2\DOCUMENTS\W1D3SILVIU\EX_ADDRESSES.CPP
^C:\USERS\VADIM2\DOCUMENTS\W1D3SILVIU\EXERCISES_POINTERS.CPP
/c /ZI /nologo /W3 /WX- /sdl /Od /D _MBCS /Gm /EHsc /RTC1 /MDd /GS /fp:precise /Zc:wchar_t /Zc:forScope /Zc:inline /Fo"X64\DEBUG\\" /Fd"X64\DEBUG\VC140.PDB" /Gd /TP C:\USERS\VADIM2\DOCUMENTS\W1D3SILVIU\EXERCISES_POINTERS.CPP
^C:\USERS\VADIM2\DOCUMENTS\SUMMER SCHOOL\POINTERI (W1D3)\POINTERS\POINTERS\POINTERSOURCE.CPP
/c /ZI /nologo /W3 /WX- /sdl /Od /D _CRT_SECURE_NO_WARNINGS /D _MBCS /Gm /EHsc /RTC1 /MDd /GS /fp:precise /Zc:wchar_t /Zc:forScope /Zc:inline /Fo"X64\DEBUG\\" /Fd"X64\DEBUG\VC140.PDB" /Gd /TP C:\USERS\VADIM2\DOCUMENTS\SUMMER SCHOOL\POINTERI (W1D3)\POINTERS\POINTERS\POINTERSOURCE.CPP
^C:\USERS\VADIM2\DOCUMENTS\SUMMER SCHOOL\POINTERI (W1D3)\POINTERS\EXERCISES_POINTERS.CPP
/c /ZI /nologo /W3 /WX- /sdl /Od /D _CRT_SECURE_NO_WARNINGS /D _MBCS /Gm /EHsc /RTC1 /MDd /GS /fp:precise /Zc:wchar_t /Zc:forScope /Zc:inline /Fo"X64\DEBUG\\" /Fd"X64\DEBUG\VC140.PDB" /Gd /TP C:\USERS\VADIM2\DOCUMENTS\SUMMER SCHOOL\POINTERI (W1D3)\POINTERS\EXERCISES_POINTERS.CPP
^C:\USERS\VADIM2\DOCUMENTS\SUMMER SCHOOL\POINTERI (W1D3)\POINTERS\UTIL.CPP
/c /ZI /nologo /W3 /WX- /sdl /Od /D _CRT_SECURE_NO_WARNINGS /D _MBCS /Gm /EHsc /RTC1 /MDd /GS /fp:precise /Zc:wchar_t /Zc:forScope /Zc:inline /Fo"X64\DEBUG\\" /Fd"X64\DEBUG\VC140.PDB" /Gd /TP C:\USERS\VADIM2\DOCUMENTS\SUMMER SCHOOL\POINTERI (W1D3)\POINTERS\UTIL.CPP
^C:\USERS\VADIM2\DOCUMENTS\SUMMER SCHOOL\POINTERI (W1D3)\POINTERS\POINTERS\EXERCISES_POINTERS.CPP
/c /ZI /nologo /W3 /WX- /sdl /Od /D _CRT_SECURE_NO_WARNINGS /D _MBCS /Gm /EHsc /RTC1 /MDd /GS /fp:precise /Zc:wchar_t /Zc:forScope /Zc:inline /Fo"X64\DEBUG\\" /Fd"X64\DEBUG\VC140.PDB" /Gd /TP C:\USERS\VADIM2\DOCUMENTS\SUMMER SCHOOL\POINTERI (W1D3)\POINTERS\POINTERS\EXERCISES_POINTERS.CPP
^C:\USERS\VADIM2\DOCUMENTS\SUMMER SCHOOL\POINTERI (W1D3)\POINTERS\POINTERS\UTIL.CPP
/c /ZI /nologo /W3 /WX- /sdl /Od /D _CRT_SECURE_NO_WARNINGS /D _MBCS /Gm /EHsc /RTC1 /MDd /GS /fp:precise /Zc:wchar_t /Zc:forScope /Zc:inline /Fo"X64\DEBUG\\" /Fd"X64\DEBUG\VC140.PDB" /Gd /TP C:\USERS\VADIM2\DOCUMENTS\SUMMER SCHOOL\POINTERI (W1D3)\POINTERS\POINTERS\UTIL.CPP
^C:\USERS\VADIM2\DOCUMENTS\SUMMER SCHOOL\POINTERI (W1D3)\POINTERS\POINTERS\EX_FUNCTIONPOINTERS.CPP
/c /ZI /nologo /W3 /WX- /sdl /Od /D _CRT_SECURE_NO_WARNINGS /D _MBCS /Gm /EHsc /RTC1 /MDd /GS /fp:precise /Zc:wchar_t /Zc:forScope /Zc:inline /Fo"X64\DEBUG\\" /Fd"X64\DEBUG\VC140.PDB" /Gd /TP C:\USERS\VADIM2\DOCUMENTS\SUMMER SCHOOL\POINTERI (W1D3)\POINTERS\POINTERS\EX_FUNCTIONPOINTERS.CPP
