^C:\USERS\VADIM2\DOCUMENTS\W1D3SILVIU\EX_ADDRESSES.CPP
C:\USERS\VADIM2\DOCUMENTS\SUMMER SCHOOL\POINTERI (W1D3)\POINTERS\POINTERS\X64\DEBUG\VC140.PDB
C:\USERS\VADIM2\DOCUMENTS\SUMMER SCHOOL\POINTERI (W1D3)\POINTERS\POINTERS\X64\DEBUG\VC140.IDB
C:\USERS\VADIM2\DOCUMENTS\SUMMER SCHOOL\POINTERI (W1D3)\POINTERS\POINTERS\X64\DEBUG\EX_ADDRESSES.OBJ
^C:\USERS\VADIM2\DOCUMENTS\SUMMER SCHOOL\POINTERI (W1D3)\POINTERS\POINTERS\POINTERSOURCE.CPP|C:\USERS\VADIM2\DOCUMENTS\W1D3SILVIU\EXERCISES_POINTERS.CPP
C:\USERS\VADIM2\DOCUMENTS\SUMMER SCHOOL\POINTERI (W1D3)\POINTERS\POINTERS\X64\DEBUG\VC140.PDB
C:\USERS\VADIM2\DOCUMENTS\SUMMER SCHOOL\POINTERI (W1D3)\POINTERS\POINTERS\X64\DEBUG\VC140.IDB
C:\USERS\VADIM2\DOCUMENTS\SUMMER SCHOOL\POINTERI (W1D3)\POINTERS\POINTERS\X64\DEBUG\EXERCISES_POINTERS.OBJ
C:\USERS\VADIM2\DOCUMENTS\SUMMER SCHOOL\POINTERI (W1D3)\POINTERS\POINTERS\X64\DEBUG\POINTERSOURCE.OBJ
^C:\USERS\VADIM2\DOCUMENTS\W1D3SILVIU\EXERCISES_POINTERS.CPP
C:\USERS\VADIM2\DOCUMENTS\SUMMER SCHOOL\POINTERI (W1D3)\POINTERS\POINTERS\X64\DEBUG\VC140.PDB
C:\USERS\VADIM2\DOCUMENTS\SUMMER SCHOOL\POINTERI (W1D3)\POINTERS\POINTERS\X64\DEBUG\VC140.IDB
C:\USERS\VADIM2\DOCUMENTS\SUMMER SCHOOL\POINTERI (W1D3)\POINTERS\POINTERS\X64\DEBUG\EXERCISES_POINTERS.OBJ
^C:\USERS\VADIM2\DOCUMENTS\SUMMER SCHOOL\POINTERI (W1D3)\POINTERS\POINTERS\POINTERSOURCE.CPP
C:\USERS\VADIM2\DOCUMENTS\SUMMER SCHOOL\POINTERI (W1D3)\POINTERS\POINTERS\X64\DEBUG\VC140.PDB
C:\USERS\VADIM2\DOCUMENTS\SUMMER SCHOOL\POINTERI (W1D3)\POINTERS\POINTERS\X64\DEBUG\VC140.IDB
C:\USERS\VADIM2\DOCUMENTS\SUMMER SCHOOL\POINTERI (W1D3)\POINTERS\POINTERS\X64\DEBUG\POINTERSOURCE.OBJ
^C:\USERS\VADIM2\DOCUMENTS\SUMMER SCHOOL\POINTERI (W1D3)\POINTERS\EXERCISES_POINTERS.CPP
C:\USERS\VADIM2\DOCUMENTS\SUMMER SCHOOL\POINTERI (W1D3)\POINTERS\POINTERS\X64\DEBUG\VC140.PDB
C:\USERS\VADIM2\DOCUMENTS\SUMMER SCHOOL\POINTERI (W1D3)\POINTERS\POINTERS\X64\DEBUG\VC140.IDB
C:\USERS\VADIM2\DOCUMENTS\SUMMER SCHOOL\POINTERI (W1D3)\POINTERS\POINTERS\X64\DEBUG\EXERCISES_POINTERS.OBJ
^C:\USERS\VADIM2\DOCUMENTS\SUMMER SCHOOL\POINTERI (W1D3)\POINTERS\EXERCISES_POINTERS.CPP|C:\USERS\VADIM2\DOCUMENTS\SUMMER SCHOOL\POINTERI (W1D3)\POINTERS\UTIL.CPP
C:\USERS\VADIM2\DOCUMENTS\SUMMER SCHOOL\POINTERI (W1D3)\POINTERS\POINTERS\X64\DEBUG\VC140.PDB
C:\USERS\VADIM2\DOCUMENTS\SUMMER SCHOOL\POINTERI (W1D3)\POINTERS\POINTERS\X64\DEBUG\VC140.IDB
C:\USERS\VADIM2\DOCUMENTS\SUMMER SCHOOL\POINTERI (W1D3)\POINTERS\POINTERS\X64\DEBUG\EXERCISES_POINTERS.OBJ
C:\USERS\VADIM2\DOCUMENTS\SUMMER SCHOOL\POINTERI (W1D3)\POINTERS\POINTERS\X64\DEBUG\UTIL.OBJ
^C:\USERS\VADIM2\DOCUMENTS\SUMMER SCHOOL\POINTERI (W1D3)\POINTERS\UTIL.CPP
C:\USERS\VADIM2\DOCUMENTS\SUMMER SCHOOL\POINTERI (W1D3)\POINTERS\POINTERS\X64\DEBUG\VC140.PDB
^C:\USERS\VADIM2\DOCUMENTS\SUMMER SCHOOL\POINTERI (W1D3)\POINTERS\EXERCISES_POINTERS.CPP|C:\USERS\VADIM2\DOCUMENTS\SUMMER SCHOOL\POINTERI (W1D3)\POINTERS\POINTERS\POINTERSOURCE.CPP
C:\USERS\VADIM2\DOCUMENTS\SUMMER SCHOOL\POINTERI (W1D3)\POINTERS\POINTERS\X64\DEBUG\VC140.PDB
C:\USERS\VADIM2\DOCUMENTS\SUMMER SCHOOL\POINTERI (W1D3)\POINTERS\POINTERS\X64\DEBUG\VC140.IDB
C:\USERS\VADIM2\DOCUMENTS\SUMMER SCHOOL\POINTERI (W1D3)\POINTERS\POINTERS\X64\DEBUG\EXERCISES_POINTERS.OBJ
^C:\USERS\VADIM2\DOCUMENTS\SUMMER SCHOOL\POINTERI (W1D3)\POINTERS\POINTERS\EXERCISES_POINTERS.CPP|C:\USERS\VADIM2\DOCUMENTS\SUMMER SCHOOL\POINTERI (W1D3)\POINTERS\POINTERS\UTIL.CPP
C:\USERS\VADIM2\DOCUMENTS\SUMMER SCHOOL\POINTERI (W1D3)\POINTERS\POINTERS\X64\DEBUG\VC140.PDB
C:\USERS\VADIM2\DOCUMENTS\SUMMER SCHOOL\POINTERI (W1D3)\POINTERS\POINTERS\X64\DEBUG\VC140.IDB
C:\USERS\VADIM2\DOCUMENTS\SUMMER SCHOOL\POINTERI (W1D3)\POINTERS\POINTERS\X64\DEBUG\EXERCISES_POINTERS.OBJ
C:\USERS\VADIM2\DOCUMENTS\SUMMER SCHOOL\POINTERI (W1D3)\POINTERS\POINTERS\X64\DEBUG\UTIL.OBJ
^C:\USERS\VADIM2\DOCUMENTS\SUMMER SCHOOL\POINTERI (W1D3)\POINTERS\POINTERS\EXERCISES_POINTERS.CPP
C:\USERS\VADIM2\DOCUMENTS\SUMMER SCHOOL\POINTERI (W1D3)\POINTERS\POINTERS\X64\DEBUG\VC140.PDB
C:\USERS\VADIM2\DOCUMENTS\SUMMER SCHOOL\POINTERI (W1D3)\POINTERS\POINTERS\X64\DEBUG\VC140.IDB
C:\USERS\VADIM2\DOCUMENTS\SUMMER SCHOOL\POINTERI (W1D3)\POINTERS\POINTERS\X64\DEBUG\EXERCISES_POINTERS.OBJ
^C:\USERS\VADIM2\DOCUMENTS\SUMMER SCHOOL\POINTERI (W1D3)\POINTERS\POINTERS\UTIL.CPP
C:\USERS\VADIM2\DOCUMENTS\SUMMER SCHOOL\POINTERI (W1D3)\POINTERS\POINTERS\X64\DEBUG\VC140.PDB
^C:\USERS\VADIM2\DOCUMENTS\SUMMER SCHOOL\POINTERI (W1D3)\POINTERS\POINTERS\EX_FUNCTIONPOINTERS.CPP
C:\USERS\VADIM2\DOCUMENTS\SUMMER SCHOOL\POINTERI (W1D3)\POINTERS\POINTERS\X64\DEBUG\VC140.PDB
C:\USERS\VADIM2\DOCUMENTS\SUMMER SCHOOL\POINTERI (W1D3)\POINTERS\POINTERS\X64\DEBUG\VC140.IDB
C:\USERS\VADIM2\DOCUMENTS\SUMMER SCHOOL\POINTERI (W1D3)\POINTERS\POINTERS\X64\DEBUG\EX_FUNCTIONPOINTERS.OBJ
