^C:\USERS\VADIM2\DOCUMENTS\SUMMER SCHOOL\W2D3 - CLASSES,STRUCT\CLASSES\CLASSES\SOURCE.CPP
C:\USERS\VADIM2\DOCUMENTS\SUMMER SCHOOL\W2D3 - CLASSES,STRUCT\CLASSES\CLASSES\DEBUG\VC140.PDB
C:\USERS\VADIM2\DOCUMENTS\SUMMER SCHOOL\W2D3 - CLASSES,STRUCT\CLASSES\CLASSES\DEBUG\VC140.IDB
C:\USERS\VADIM2\DOCUMENTS\SUMMER SCHOOL\W2D3 - CLASSES,STRUCT\CLASSES\CLASSES\DEBUG\SOURCE.OBJ
^C:\USERS\VADIM2\DOCUMENTS\SUMMER SCHOOL\W2D3 - CLASSES,STRUCT\CLASSES\CLASSES\CLOCKTYPE.CPP|C:\USERS\VADIM2\DOCUMENTS\SUMMER SCHOOL\W2D3 - CLASSES,STRUCT\CLASSES\CLASSES\MAINCLOCK.CPP
C:\USERS\VADIM2\DOCUMENTS\SUMMER SCHOOL\W2D3 - CLASSES,STRUCT\CLASSES\CLASSES\DEBUG\VC140.PDB
C:\USERS\VADIM2\DOCUMENTS\SUMMER SCHOOL\W2D3 - CLASSES,STRUCT\CLASSES\CLASSES\DEBUG\VC140.IDB
C:\USERS\VADIM2\DOCUMENTS\SUMMER SCHOOL\W2D3 - CLASSES,STRUCT\CLASSES\CLASSES\DEBUG\CLOCKTYPE.OBJ
C:\USERS\VADIM2\DOCUMENTS\SUMMER SCHOOL\W2D3 - CLASSES,STRUCT\CLASSES\CLASSES\DEBUG\MAINCLOCK.OBJ
^C:\USERS\VADIM2\DOCUMENTS\SUMMER SCHOOL\W2D3 - CLASSES,STRUCT\CLASSES\CLASSES\CLOCKTYPE.CPP
C:\USERS\VADIM2\DOCUMENTS\SUMMER SCHOOL\W2D3 - CLASSES,STRUCT\CLASSES\CLASSES\DEBUG\VC140.PDB
C:\USERS\VADIM2\DOCUMENTS\SUMMER SCHOOL\W2D3 - CLASSES,STRUCT\CLASSES\CLASSES\DEBUG\VC140.IDB
C:\USERS\VADIM2\DOCUMENTS\SUMMER SCHOOL\W2D3 - CLASSES,STRUCT\CLASSES\CLASSES\DEBUG\CLOCKTYPE.OBJ
^C:\USERS\VADIM2\DOCUMENTS\SUMMER SCHOOL\W2D3 - CLASSES,STRUCT\CLASSES\CLASSES\MAINCLOCK.CPP
C:\USERS\VADIM2\DOCUMENTS\SUMMER SCHOOL\W2D3 - CLASSES,STRUCT\CLASSES\CLASSES\DEBUG\VC140.PDB
C:\USERS\VADIM2\DOCUMENTS\SUMMER SCHOOL\W2D3 - CLASSES,STRUCT\CLASSES\CLASSES\DEBUG\VC140.IDB
C:\USERS\VADIM2\DOCUMENTS\SUMMER SCHOOL\W2D3 - CLASSES,STRUCT\CLASSES\CLASSES\DEBUG\MAINCLOCK.OBJ
^C:\USERS\VADIM2\DOCUMENTS\SUMMER SCHOOL\W2D3 - CLASSES,STRUCT\CLASSES\CLASSES\MAINEORDSETTYPE.CPP|C:\USERS\VADIM2\DOCUMENTS\SUMMERSCHOOL_TEAM\ORDEREDSETTYPE.CPP
C:\USERS\VADIM2\DOCUMENTS\SUMMER SCHOOL\W2D3 - CLASSES,STRUCT\CLASSES\CLASSES\DEBUG\VC140.PDB
C:\USERS\VADIM2\DOCUMENTS\SUMMER SCHOOL\W2D3 - CLASSES,STRUCT\CLASSES\CLASSES\DEBUG\VC140.IDB
C:\USERS\VADIM2\DOCUMENTS\SUMMER SCHOOL\W2D3 - CLASSES,STRUCT\CLASSES\CLASSES\DEBUG\ORDEREDSETTYPE.OBJ
C:\USERS\VADIM2\DOCUMENTS\SUMMER SCHOOL\W2D3 - CLASSES,STRUCT\CLASSES\CLASSES\DEBUG\MAINEORDSETTYPE.OBJ
^C:\USERS\VADIM2\DOCUMENTS\SUMMERSCHOOL_TEAM\ORDEREDSETTYPE.CPP
C:\USERS\VADIM2\DOCUMENTS\SUMMER SCHOOL\W2D3 - CLASSES,STRUCT\CLASSES\CLASSES\DEBUG\VC140.PDB
^C:\USERS\VADIM2\DOCUMENTS\SUMMER SCHOOL\W2D3 - CLASSES,STRUCT\CLASSES\CLASSES\MAINEORDSETTYPE.CPP
C:\USERS\VADIM2\DOCUMENTS\SUMMER SCHOOL\W2D3 - CLASSES,STRUCT\CLASSES\CLASSES\DEBUG\VC140.PDB
C:\USERS\VADIM2\DOCUMENTS\SUMMER SCHOOL\W2D3 - CLASSES,STRUCT\CLASSES\CLASSES\DEBUG\VC140.IDB
C:\USERS\VADIM2\DOCUMENTS\SUMMER SCHOOL\W2D3 - CLASSES,STRUCT\CLASSES\CLASSES\DEBUG\MAINEORDSETTYPE.OBJ
^C:\USERS\VADIM2\DESKTOP\ORDEREDSETTYPE.CPP
C:\USERS\VADIM2\DOCUMENTS\SUMMER SCHOOL\W2D3 - CLASSES,STRUCT\CLASSES\CLASSES\DEBUG\VC140.PDB
C:\USERS\VADIM2\DOCUMENTS\SUMMER SCHOOL\W2D3 - CLASSES,STRUCT\CLASSES\CLASSES\DEBUG\VC140.IDB
^C:\USERS\VADIM2\DOCUMENTS\SUMMER SCHOOL\W2D3 - CLASSES,STRUCT\CLASSES\CLASSES\ORDEREDSETTYPE.CPP
C:\USERS\VADIM2\DOCUMENTS\SUMMER SCHOOL\W2D3 - CLASSES,STRUCT\CLASSES\CLASSES\DEBUG\VC140.PDB
C:\USERS\VADIM2\DOCUMENTS\SUMMER SCHOOL\W2D3 - CLASSES,STRUCT\CLASSES\CLASSES\DEBUG\VC140.IDB
C:\USERS\VADIM2\DOCUMENTS\SUMMER SCHOOL\W2D3 - CLASSES,STRUCT\CLASSES\CLASSES\DEBUG\ORDEREDSETTYPE.OBJ
^C:\USERS\VADIM2\DOCUMENTS\SUMMER SCHOOL\W2D3 - CLASSES,STRUCT\CLASSES\CLASSES\MAINEORDSETTYPE.CPP|C:\USERS\VADIM2\DOCUMENTS\SUMMER SCHOOL\W2D3 - CLASSES,STRUCT\CLASSES\CLASSES\ORDEREDSETTYPE.CPP
C:\USERS\VADIM2\DOCUMENTS\SUMMER SCHOOL\W2D3 - CLASSES,STRUCT\CLASSES\CLASSES\DEBUG\VC140.PDB
C:\USERS\VADIM2\DOCUMENTS\SUMMER SCHOOL\W2D3 - CLASSES,STRUCT\CLASSES\CLASSES\DEBUG\VC140.IDB
C:\USERS\VADIM2\DOCUMENTS\SUMMER SCHOOL\W2D3 - CLASSES,STRUCT\CLASSES\CLASSES\DEBUG\ORDEREDSETTYPE.OBJ
C:\USERS\VADIM2\DOCUMENTS\SUMMER SCHOOL\W2D3 - CLASSES,STRUCT\CLASSES\CLASSES\DEBUG\MAINEORDSETTYPE.OBJ
^C:\USERS\VADIM2\DOCUMENTS\SUMMER SCHOOL\W2D3 - CLASSES,STRUCT\CLASSES\CLASSES\STUDENT.CPP|C:\USERS\VADIM2\DOCUMENTS\SUMMER SCHOOL\W2D3 - CLASSES,STRUCT\CLASSES\CLASSES\STUDENTI.CPP
C:\USERS\VADIM2\DOCUMENTS\SUMMER SCHOOL\W2D3 - CLASSES,STRUCT\CLASSES\CLASSES\DEBUG\VC140.PDB
C:\USERS\VADIM2\DOCUMENTS\SUMMER SCHOOL\W2D3 - CLASSES,STRUCT\CLASSES\CLASSES\DEBUG\VC140.IDB
C:\USERS\VADIM2\DOCUMENTS\SUMMER SCHOOL\W2D3 - CLASSES,STRUCT\CLASSES\CLASSES\DEBUG\STUDENT.OBJ
C:\USERS\VADIM2\DOCUMENTS\SUMMER SCHOOL\W2D3 - CLASSES,STRUCT\CLASSES\CLASSES\DEBUG\STUDENTI.OBJ
^C:\USERS\VADIM2\DOCUMENTS\SUMMER SCHOOL\W2D3 - CLASSES,STRUCT\CLASSES\CLASSES\STUDENTI.CPP
C:\USERS\VADIM2\DOCUMENTS\SUMMER SCHOOL\W2D3 - CLASSES,STRUCT\CLASSES\CLASSES\DEBUG\VC140.PDB
C:\USERS\VADIM2\DOCUMENTS\SUMMER SCHOOL\W2D3 - CLASSES,STRUCT\CLASSES\CLASSES\DEBUG\VC140.IDB
C:\USERS\VADIM2\DOCUMENTS\SUMMER SCHOOL\W2D3 - CLASSES,STRUCT\CLASSES\CLASSES\DEBUG\STUDENTI.OBJ
^C:\USERS\VADIM2\DOCUMENTS\SUMMER SCHOOL\W2D3 - CLASSES,STRUCT\CLASSES\CLASSES\STUDENT.CPP
C:\USERS\VADIM2\DOCUMENTS\SUMMER SCHOOL\W2D3 - CLASSES,STRUCT\CLASSES\CLASSES\DEBUG\VC140.PDB
C:\USERS\VADIM2\DOCUMENTS\SUMMER SCHOOL\W2D3 - CLASSES,STRUCT\CLASSES\CLASSES\DEBUG\VC140.IDB
C:\USERS\VADIM2\DOCUMENTS\SUMMER SCHOOL\W2D3 - CLASSES,STRUCT\CLASSES\CLASSES\DEBUG\STUDENT.OBJ
