^C:\USERS\VADIM2\DOCUMENTS\SUMMER SCHOOL\W2D3 - CLASSES,STRUCT\CLASSES\CLASSES\DEBUG\STUDENT.OBJ|C:\USERS\VADIM2\DOCUMENTS\SUMMER SCHOOL\W2D3 - CLASSES,STRUCT\CLASSES\CLASSES\DEBUG\STUDENTI.OBJ
C:\USERS\VADIM2\DOCUMENTS\SUMMER SCHOOL\W2D3 - CLASSES,STRUCT\CLASSES\DEBUG\CLASSES.ILK
C:\USERS\VADIM2\DOCUMENTS\SUMMER SCHOOL\W2D3 - CLASSES,STRUCT\CLASSES\DEBUG\CLASSES.EXE
C:\USERS\VADIM2\DOCUMENTS\SUMMER SCHOOL\W2D3 - CLASSES,STRUCT\CLASSES\DEBUG\CLASSES.PDB
